Flexible Manipulation of EEG Data • eeguana
…
We can also edit the segmentation information and add more descriptive labels. Once the eeg_lst is segmented, the segments table includes the relevant columns from the events table (but without the leading dots).

eeguana has wrappers for many dplyr commands for the EEG data. These commands always return an entire eeg_lst object so that they can be piped using magrittr’s pipe, %>%.

## To only see the segments table:
segments_tbl(faces_segs)
#> # A tibble: 200 x 5
#>      .id .recording segment type     description
#>    <int> <chr>        <int> <chr>    <chr>      
#>  1     1 faces.vhdr       1 Stimulus s70        
#>  2     2 faces.vhdr       2 Stimulus s71        
#>  3     3 faces.vhdr       3 Stimulus s71        
#>  4     4 faces.vhdr       4 Stimulus s71        
#>  5     5 faces.vhdr       5 Stimulus s70        
#>  6     6 faces.vhdr       6 Stimulus s71        
#>  7     7 faces.vhdr       7 Stimulus s71        
#>  8     8 faces.vhdr       8 Stimulus s70        
#>  9     9 faces.vhdr       9 Stimulus s70        
#> 10    10 faces.vhdr      10 Stimulus s70        
#> # … with 190 more rows
…
#>      .id    .type .description .initial .final .channel
#>   1:   1 Stimulus          s70        1      1     <NA>
#>   2:   2 Stimulus          s71        1      1     <NA>
#>   3:   3 Stimulus          s71        1      1     <NA>
#>   4:   4 Stimulus          s71        1      1     <NA>
#>   5:   5 Stimulus          s70        1      1     <NA>
#>  ---                                                   
#> 196: 196 Stimulus          s71        1      1     <NA>
#> 197: 197 Stimulus          s70        1      1     <NA>
#> 198: 198 Stimulus          s70        1      1     <NA>
#> 199: 199 Stimulus          s70        1      1     <NA>
#> 200: 200 Stimulus          s70        1      1     <NA>
#> 
#> # Segments table:
#> # A tibble: 200 x 5
#>      .id .recording segment description condition
#>    <int> <chr>        <int> <chr>       <chr>    
#>  1     1 faces.vhdr       1 s70         faces    
#>  2     2 faces.vhdr       2 s71         non-faces
#>  3     3 faces.vhdr       3 s71         non-faces
#>  4     4 faces.vhdr       4 s71         non-faces
#>  5     5 faces.vhdr       5 s70         faces    
#>  6     6 faces.vhdr       6 s71         non-faces
#>  7     7 faces.vhdr       7 s71         non-faces
#>  8     8 faces.vhdr       8 s70         faces    
#>  9     9 faces.vhdr       9 s70         faces    
#> 10    10 faces.vhdr      10 s70         faces    
#> # … with 190 more rows
…
