…
We first need to read the data:

``` r
faces <- read_vhdr("faces.vhdr")
#> # Data from faces.dat was read.
#> # Data from 1 segment(s) and 34 channels was loaded.
#> # Object size in memory 147 MB
```

The function `read_vhdr` creates a list with data frames for the signal, events, segments, and channels information, and a list for generic EEG information.

``` r
faces
#> $signal
#> # A tibble: 525,207 x 36
#>      .id sample   Fp1      Fpz    Fp2    F7     F3     Fz    F4     F8
#>    <int>  <int> <dbl>    <dbl>  <dbl> <dbl>  <dbl>  <dbl> <dbl>  <dbl>
#>  1     1      1 -4.27 -12.5    -8.51   5.81  0.799 -3.79  -7.00  -9.59
#>  2     1      2 -5.99 -11.3    -8.30   4.47 -0.456 -3.92  -7.31 -10.2 
#>  3     1      3 -6.58  -9.33   -7.68   3.71 -1.84  -3.69  -7.33 -10.6 
#>  4     1      4 -5.90  -6.18   -6.08   3.95 -2.63  -2.27  -6.54 -10.5 
#>  5     1      5 -5.35  -2.58   -3.96   4.62 -2.96  -0.172 -5.45 -10.3 
#>  6     1      6 -6.19   0.246  -2.29   4.85 -3.32   1.66  -4.58 -10.3 
#>  7     1      7 -7.80   1.79   -1.50   4.27 -3.77   2.81  -4.03 -10.6 
#>  8     1      8 -8.61   2.21   -1.18   3.49 -4.31   3.15  -3.71 -10.6 
#>  9     1      9 -7.93   1.64   -0.730  3.28 -4.79   2.71  -3.40  -9.60
#> 10     1     10 -6.56  -0.0265 -0.457  3.81 -4.92   1.63  -3.23  -7.73
#> # ... with 525,197 more rows, and 26 more variables: FC5 <dbl>, FC1 <dbl>,
#> #   FC2 <dbl>, FC6 <dbl>, M1 <dbl>, T7 <dbl>, C3 <dbl>, Cz <dbl>,
#> #   C4 <dbl>, T8 <dbl>, M2 <dbl>, CP5 <dbl>, CP1 <dbl>, CP2 <dbl>,
#> #   CP6 <dbl>, P7 <dbl>, P3 <dbl>, Pz <dbl>, P4 <dbl>, P8 <dbl>,
#> #   POz <dbl>, O1 <dbl>, Oz <dbl>, O2 <dbl>, EOGV <dbl>, EOGH <dbl>
#> 
#> $events
#> # A tibble: 4,276 x 6
#>      .id type         description sample  size channel
#>    <int> <chr>        <chr>        <int> <int> <fct>  
#>  1     1 New Segment  <NA>             1     1 <NA>   
#>  2     1 Bad Interval Bad Min-Max   2158   738 Fp1    
#>  3     1 Bad Interval Bad Min-Max   2161   731 Fp2    
#>  4     1 Bad Interval Bad Min-Max   2162   729 Fpz    
#>  5     1 Bad Interval Bad Min-Max   2173   689 F8     
#>  6     1 Bad Interval Bad Min-Max   2181   675 F4     
#>  7     1 Bad Interval Bad Min-Max   2182   676 Fz     
#>  8     1 Bad Interval Bad Min-Max   2306   549 F3     
#>  9     1 Bad Interval Bad Min-Max   2899   397 Fp1    
#> 10     1 Bad Interval Bad Min-Max   2901   392 Fpz    
#> # ... with 4,266 more rows
#> 
#> $channels
#> # A tibble: 34 x 4
#>    labels     x     y     z
#>    <fct>  <dbl> <dbl> <dbl>
#>  1 Fp1    -0.31  0.95  0   
#>  2 Fpz     0     1     0   
#>  3 Fp2     0.31  0.95  0   
#>  4 F7     -0.81  0.59  0   
#>  5 F3     -0.55  0.67  0.5 
#>  6 Fz      0     0.71  0.71
#>  7 F4      0.55  0.67  0.5 
#>  8 F8      0.81  0.59  0   
#>  9 FC5    -0.87  0.33  0.36
#> 10 FC1    -0.36  0.37  0.86
#> # ... with 24 more rows
…
We can also edit the segmentation information and add more descriptive labels. `eegble` has wrappers for many `dplyr` commands for the EEG data. These commands always return the entire `eegble` object so that they can be piped using `magrittr`'s pipe, `%>%`.

``` r
faces_segs_some <- faces_segs %>%  
                  mutate(condition =
                  if_else(description == "s70", "faces", "non-faces")) %>% 
                  select(-type)

faces_segs_some
#> $signal
#> # A tibble: 45,200 x 36
#>      .id sample    Fp1   Fpz   Fp2     F7    F3    Fz    F4     F8    FC5
#>    <int>  <int>  <dbl> <dbl> <dbl>  <dbl> <dbl> <dbl> <dbl>  <dbl>  <dbl>
#>  1     1    -99  3.00  3.82   1.68  5.35   8.53  4.73 3.19  -0.109  -3.64
#>  2     1    -98  4.65  5.97   2.90  6.23  12.0   6.16 3.99  -0.876   1.02
#>  3     1    -97  5.64  7.73   3.36  6.15  12.6   7.13 4.27  -2.20    7.28
#>  4     1    -96  4.89  7.09   1.56  4.68  10.2   6.34 3.26  -3.93   10.4 
#>  5     1    -95  1.68  3.59  -2.12  1.82   6.47  4.63 1.39  -5.12   10.3 
#>  6     1    -94 -1.11  0.194 -4.62 -1.04   4.09  3.79 0.175 -4.62    8.79
#>  7     1    -93  0.935 0.837 -2.97 -1.40   4.63  4.44 0.815 -2.31    7.04
#>  8     1    -92  5.51  4.36   1.25  0.303  7.07  5.85 2.76   0.464   6.25
#>  9     1    -91  7.31  6.30   4.20  1.38   8.46  7.05 4.70   2.63    5.49
#> 10     1    -90  6.71  5.89   5.12  1.61   7.65  7.56 5.98   4.03    4.25
#> # ... with 45,190 more rows, and 25 more variables: FC1 <dbl>, FC2 <dbl>,
#> #   FC6 <dbl>, M1 <dbl>, T7 <dbl>, C3 <dbl>, Cz <dbl>, C4 <dbl>, T8 <dbl>,
#> #   M2 <dbl>, CP5 <dbl>, CP1 <dbl>, CP2 <dbl>, CP6 <dbl>, P7 <dbl>,
#> #   P3 <dbl>, Pz <dbl>, P4 <dbl>, P8 <dbl>, POz <dbl>, O1 <dbl>, Oz <dbl>,
#> #   O2 <dbl>, EOGV <dbl>, EOGH <dbl>
#> 
#> $events
#> # A tibble: 200 x 6
#>      .id type     description sample  size channel
#>    <int> <chr>    <chr>        <int> <int> <fct>  
#>  1     1 Stimulus s70              1     1 <NA>   
#>  2     2 Stimulus s71              1     1 <NA>   
#>  3     3 Stimulus s71              1     1 <NA>   
#>  4     4 Stimulus s71              1     1 <NA>   
#>  5     5 Stimulus s70              1     1 <NA>   
#>  6     6 Stimulus s71              1     1 <NA>   
#>  7     7 Stimulus s71              1     1 <NA>   
#>  8     8 Stimulus s70              1     1 <NA>   
#>  9     9 Stimulus s70              1     1 <NA>   
#> 10    10 Stimulus s70              1     1 <NA>   
#> # ... with 190 more rows
#> 
#> $channels
#> # A tibble: 34 x 4
#>    labels     x     y     z
#>    <fct>  <dbl> <dbl> <dbl>
#>  1 Fp1    -0.31  0.95  0   
#>  2 Fpz     0     1     0   
#>  3 Fp2     0.31  0.95  0   
#>  4 F7     -0.81  0.59  0   
#>  5 F3     -0.55  0.67  0.5 
#>  6 Fz      0     0.71  0.71
#>  7 F4      0.55  0.67  0.5 
#>  8 F8      0.81  0.59  0   
#>  9 FC5    -0.87  0.33  0.36
#> 10 FC1    -0.36  0.37  0.86
#> # ... with 24 more rows
#> 
#> $info
#> $info$srate
#> [1] 500
#> 
#> $info$reference
#> [1] NA
#> 
#> 
#> $segments
#> # A tibble: 200 x 5
#>      .id recording  segment description condition
#>    <int> <chr>        <int> <chr>       <chr>    
#>  1     1 faces.vhdr       1 s70         faces    
#>  2     2 faces.vhdr       2 s71         non-faces
#>  3     3 faces.vhdr       3 s71         non-faces
#>  4     4 faces.vhdr       4 s71         non-faces
#>  5     5 faces.vhdr       5 s70         faces    
#>  6     6 faces.vhdr       6 s71         non-faces
#>  7     7 faces.vhdr       7 s71         non-faces
#>  8     8 faces.vhdr       8 s70         faces    
#>  9     9 faces.vhdr       9 s70         faces    
#> 10    10 faces.vhdr      10 s70         faces    
#> # ... with 190 more rows
…
