A package for flexible manipulation of EEG data • eeguana
…
#>      .id     type description .sample_0 .size .channel
#>   1:   1 Stimulus         s70         1     1     <NA>
#>   2:   2 Stimulus         s71         1     1     <NA>
#>   3:   3 Stimulus         s71         1     1     <NA>
#>   4:   4 Stimulus         s71         1     1     <NA>
#>   5:   5 Stimulus         s70         1     1     <NA>
#>  ---                                                  
#> 196: 196 Stimulus         s71         1     1     <NA>
#> 197: 197 Stimulus         s70         1     1     <NA>
#> 198: 198 Stimulus         s70         1     1     <NA>
#> 199: 199 Stimulus         s70         1     1     <NA>
#> 200: 200 Stimulus         s70         1     1     <NA>
#> 
#> $segments
#> # A tibble: 200 x 5
#>      .id recording  segment description condition
#>    <int> <chr>        <int> <chr>       <chr>    
#>  1     1 faces.vhdr       1 s70         faces    
#>  2     2 faces.vhdr       2 s71         non-faces
#>  3     3 faces.vhdr       3 s71         non-faces
#>  4     4 faces.vhdr       4 s71         non-faces
#>  5     5 faces.vhdr       5 s70         faces    
#>  6     6 faces.vhdr       6 s71         non-faces
#>  7     7 faces.vhdr       7 s71         non-faces
#>  8     8 faces.vhdr       8 s70         faces    
#>  9     9 faces.vhdr       9 s70         faces    
#> 10    10 faces.vhdr      10 s70         faces    
#> # … with 190 more rows
…
