Introduction - Manipulating a clean EEG file exported from BrainVision 2.0 • eeguana
…
#>      .id     type description .sample_0 .size .channel
#>   1:   1 Stimulus         s70         1     1     <NA>
#>   2:   2 Stimulus         s71         1     1     <NA>
#>   3:   3 Stimulus         s71         1     1     <NA>
#>   4:   4 Stimulus         s71         1     1     <NA>
#>   5:   5 Stimulus         s70         1     1     <NA>
#>  ---                                                  
#> 196: 196 Stimulus         s71         1     1     <NA>
#> 197: 197 Stimulus         s70         1     1     <NA>
#> 198: 198 Stimulus         s70         1     1     <NA>
#> 199: 199 Stimulus         s70         1     1     <NA>
#> 200: 200 Stimulus         s70         1     1     <NA>
#> 
#> $segments
#> # A tibble: 200 x 5
#>      .id recording  segment description condition
#>    <int> <chr>        <int> <chr>       <chr>    
#>  1     1 faces.vhdr       1 s70         faces    
#>  2     2 faces.vhdr       2 s71         non-faces
#>  3     3 faces.vhdr       3 s71         non-faces
#>  4     4 faces.vhdr       4 s71         non-faces
#>  5     5 faces.vhdr       5 s70         faces    
#>  6     6 faces.vhdr       6 s71         non-faces
#>  7     7 faces.vhdr       7 s71         non-faces
#>  8     8 faces.vhdr       8 s70         faces    
#>  9     9 faces.vhdr       9 s70         faces    
#> 10    10 faces.vhdr      10 s70         faces    
#> # … with 190 more rows
…
For more specialized plots or analyses, it might be necessary to extract the data in long data frame format first. For example, here, we visualize independent t-tests (or some other statistics) at every electrode and time point.

df <- faces_segs_some %>% 
      select(O1, O2, P7, P8) %>%
      as_tibble %>%
        # We can use regular dplyr functions now
      group_by(channel, time) %>% 
      summarize(
        `t-value` = t.test(amplitude[condition == "faces"],
          amplitude[condition == "non-faces"])$statistic)

df
#> # A tibble: 904 x 3
#> # Groups:   channel [?]
#>    channel   time `t-value`
#>    <chr>    <dbl>     <dbl>
#>  1 O1      -0.2        1.77
#>  2 O1      -0.198      1.56
#>  3 O1      -0.196      1.59
#>  4 O1      -0.194      1.65
#>  5 O1      -0.192      1.62
#>  6 O1      -0.19       1.49
#>  7 O1      -0.188      1.28
#>  8 O1      -0.186      1.12
#>  9 O1      -0.184      1.10
#> 10 O1      -0.182      1.20
#> # … with 894 more rows
…
