Introduction - Preprocessing and visualization of EEG data. • eeguana
…
We see that there is no electrode positions in the object, but since we know that the layout was a standard 10/20, we’ll add this layout to the object, using the dataset layout_32_1020.

channels_tbl(faces)
#> # A tibble: 34 x 11
#>    .channel number .reference resolution unit  radius theta   phi    .x    .y
#>    <chr>    <chr>  <chr>           <dbl> <chr>  <dbl> <dbl> <dbl> <dbl> <dbl>
#>  1 Fp1      Ch1    ""                  1 micr…     NA    NA    NA    NA    NA
#>  2 Fpz      Ch2    ""                  1 micr…     NA    NA    NA    NA    NA
#>  3 Fp2      Ch3    ""                  1 micr…     NA    NA    NA    NA    NA
#>  4 F7       Ch4    ""                  1 micr…     NA    NA    NA    NA    NA
#>  5 F3       Ch5    ""                  1 micr…     NA    NA    NA    NA    NA
#>  6 Fz       Ch6    ""                  1 micr…     NA    NA    NA    NA    NA
#>  7 F4       Ch7    ""                  1 micr…     NA    NA    NA    NA    NA
#>  8 F8       Ch8    ""                  1 micr…     NA    NA    NA    NA    NA
#>  9 FC5      Ch9    ""                  1 micr…     NA    NA    NA    NA    NA
#> 10 FC1      Ch10   ""                  1 micr…     NA    NA    NA    NA    NA
#> # … with 24 more rows, and 1 more variable: .z <dbl>
…
#> 1: s1_faces.vhdr          1            0
#> # Summary of events
#>       .type                    .description   n
#> 1: artifact minmax_threshold=200_window=102 118
#> 2: Stimulus                            s111   1
#> 3: Stimulus                            s121   1
#> 4: Stimulus                            s130 200
#> 5: Stimulus                             s70 100
#> 6: Stimulus                             s71 100
#> 
#> # ICA data:
#> 
#> # Correlations with EOG channels:
#> $HEOG
#> # A tibble: 30 x 2
#>    .ICA      cor
#>    <chr>   <dbl>
#>  1 ICA1  -0.679 
#>  2 ICA25  0.121 
#>  3 ICA24 -0.105 
#>  4 ICA14  0.0875
#>  5 ICA26 -0.0854
#>  6 ICA5   0.0812
#>  7 ICA10  0.0698
#>  8 ICA13  0.0669
#>  9 ICA9   0.0658
#> 10 ICA21  0.0649
#> # … with 20 more rows
#> 
#> $VEOG
#> # A tibble: 30 x 2
#>    .ICA      cor
#>    <chr>   <dbl>
#>  1 ICA5   0.846 
#>  2 ICA3   0.208 
#>  3 ICA1   0.204 
#>  4 ICA22 -0.189 
#>  5 ICA13 -0.172 
#>  6 ICA14  0.133 
#>  7 ICA30 -0.107 
#>  8 ICA16  0.0940
#>  9 ICA23 -0.0723
#> 10 ICA24 -0.0553
#> # … with 20 more rows
…
#>      .id    .type .description .initial .final .channel
#>   1:   1 Stimulus          s71        1      1     <NA>
#>   2:   2 Stimulus          s71        1      1     <NA>
#>   3:   3 Stimulus          s71        1      1     <NA>
#>   4:   4 Stimulus          s71        1      1     <NA>
#>   5:   5 Stimulus          s71        1      1     <NA>
#>  ---                                                   
#> 196: 196 Stimulus          s71        1      1     <NA>
#> 197: 197 Stimulus          s70        1      1     <NA>
#> 198: 198 Stimulus          s71        1      1     <NA>
#> 199: 199 Stimulus          s71        1      1     <NA>
#> 200: 200 Stimulus          s71        1      1     <NA>
#> 
#> # Segments table:
#> # A tibble: 200 x 5
#>      .id .recording    segment description condition
#>    <int> <chr>           <int> <chr>       <chr>    
#>  1     1 s1_faces.vhdr       1 s71         non-faces
#>  2     2 s1_faces.vhdr       2 s71         non-faces
#>  3     3 s1_faces.vhdr       3 s71         non-faces
#>  4     4 s1_faces.vhdr       4 s71         non-faces
#>  5     5 s1_faces.vhdr       5 s71         non-faces
#>  6     6 s1_faces.vhdr       6 s71         non-faces
#>  7     7 s1_faces.vhdr       7 s70         faces    
#>  8     8 s1_faces.vhdr       8 s70         faces    
#>  9     9 s1_faces.vhdr       9 s70         faces    
#> 10    10 s1_faces.vhdr      10 s70         faces    
#> # … with 190 more rows

With some ggplot skills, we can create customized plots. ggplot is overloaded to work on an eeg_lst by first downsampling the signal when necessary, and converting it to a long-format data frame that is feed into ggplot. This object can then be customized. (Notice that the channels, or component names are in a .key column and their amplitude in .value column, and instead of samples there are now .time in seconds).

## ggplot uses internally a table that looks like this:
faces_seg %>% filter(.id %in% 1:3) %>% as_tibble()
#> # A tibble: 31,416 x 8
#>      .time   .id .recording    segment description condition .key  .value
#>      <dbl> <int> <chr>           <int> <chr>       <chr>     <chr>  <dbl>
#>  1 -0.0996     1 s1_faces.vhdr       1 s71         non-faces Fp1   -0.720
#>  2 -0.0977     1 s1_faces.vhdr       1 s71         non-faces Fp1    0.489
#>  3 -0.0957     1 s1_faces.vhdr       1 s71         non-faces Fp1    1.71 
#>  4 -0.0938     1 s1_faces.vhdr       1 s71         non-faces Fp1    2.77 
#>  5 -0.0918     1 s1_faces.vhdr       1 s71         non-faces Fp1    3.51 
#>  6 -0.0898     1 s1_faces.vhdr       1 s71         non-faces Fp1    3.83 
#>  7 -0.0879     1 s1_faces.vhdr       1 s71         non-faces Fp1    3.67 
#>  8 -0.0859     1 s1_faces.vhdr       1 s71         non-faces Fp1    3.04 
#>  9 -0.0840     1 s1_faces.vhdr       1 s71         non-faces Fp1    2.03 
#> 10 -0.0820     1 s1_faces.vhdr       1 s71         non-faces Fp1    0.773
#> # … with 31,406 more rows
…
df <- faces_seg %>%
  select(O1, O2, P7, P8) %>%
  as_tibble() %>%
  # We can use regular dplyr functions now
  group_by(.key, .time) %>%
  summarize(
    `t-value` = t.test(
      .value[condition == "faces"],
      .value[condition == "non-faces"]
    )$statistic
  )

df
#> # A tibble: 1,232 x 3
#> # Groups:   .key [4]
#>    .key    .time `t-value`
#>    <chr>   <dbl>     <dbl>
#>  1 O1    -0.0996    0.249 
#>  2 O1    -0.0977    0.273 
#>  3 O1    -0.0957    0.279 
#>  4 O1    -0.0938    0.259 
#>  5 O1    -0.0918    0.204 
#>  6 O1    -0.0898    0.110 
#>  7 O1    -0.0879   -0.0304
#>  8 O1    -0.0859   -0.221 
#>  9 O1    -0.0840   -0.459 
#> 10 O1    -0.0820   -0.733 
#> # … with 1,222 more rows
…
