Pitfalls and gotchas • eeguana
…
In some occasions, the events or the channels tables need to be edited. In those cases, one can use events_tbl(data_eeg) <- ... or channels_tbl(data_eeg) <- ...).

channels_tbl(data_faces_10_trials)
#> # A tibble: 34 x 7
#>    .channel radius theta   phi    .x    .y    .z
#>    <chr>     <dbl> <dbl> <dbl> <dbl> <dbl> <dbl>
#>  1 Fp1           1   -90   -72 -0.31  0.95  0   
#>  2 Fpz           1    90    90  0     1     0   
#>  3 Fp2           1    90    72  0.31  0.95  0   
#>  4 F7            1   -90   -36 -0.81  0.59  0   
#>  5 F3            1   -60   -51 -0.55  0.67  0.5 
#>  6 Fz            1    45    90  0     0.71  0.71
#>  7 F4            1    60    51  0.55  0.67  0.5 
#>  8 F8            1    90    36  0.81  0.59  0   
#>  9 FC5           1   -69   -21 -0.87  0.33  0.36
#> 10 FC1           1   -31   -46 -0.36  0.37  0.86
#> # … with 24 more rows
new_data <- data_faces_10_trials
channels_tbl(new_data) <- channels_tbl(new_data) %>%
  mutate(resolution = .1)
channels_tbl(new_data)
#> # A tibble: 34 x 8
#>    .channel radius theta   phi    .x    .y    .z resolution
#>    <chr>     <dbl> <dbl> <dbl> <dbl> <dbl> <dbl>      <dbl>
#>  1 Fp1           1   -90   -72 -0.31  0.95  0           0.1
#>  2 Fpz           1    90    90  0     1     0           0.1
#>  3 Fp2           1    90    72  0.31  0.95  0           0.1
#>  4 F7            1   -90   -36 -0.81  0.59  0           0.1
#>  5 F3            1   -60   -51 -0.55  0.67  0.5         0.1
#>  6 Fz            1    45    90  0     0.71  0.71        0.1
#>  7 F4            1    60    51  0.55  0.67  0.5         0.1
#>  8 F8            1    90    36  0.81  0.59  0           0.1
#>  9 FC5           1   -69   -21 -0.87  0.33  0.36        0.1
#> 10 FC1           1   -31   -46 -0.36  0.37  0.86        0.1
#> # … with 24 more rows
…
