Introduction - Preprocessing and visualization of EEG data • eeguana
…
We see that there is no electrode positions in the object, but since we know that the layout was a standard 10/20, we’ll add this layout to the object, using the dataset layout_32_1020. This is required to be able to create topographic plots.

channels_tbl(faces)
#> # A tibble: 34 × 11
#>    .channel number .reference resolution unit     radius theta   phi    .x    .y
#>    <chr>    <chr>  <chr>           <dbl> <chr>     <dbl> <dbl> <dbl> <dbl> <dbl>
#>  1 Fp1      Ch1    NA                  1 microvo…     NA    NA    NA    NA    NA
#>  2 Fpz      Ch2    NA                  1 microvo…     NA    NA    NA    NA    NA
#>  3 Fp2      Ch3    NA                  1 microvo…     NA    NA    NA    NA    NA
#>  4 F7       Ch4    NA                  1 microvo…     NA    NA    NA    NA    NA
#>  5 F3       Ch5    NA                  1 microvo…     NA    NA    NA    NA    NA
#>  6 Fz       Ch6    NA                  1 microvo…     NA    NA    NA    NA    NA
#>  7 F4       Ch7    NA                  1 microvo…     NA    NA    NA    NA    NA
#>  8 F8       Ch8    NA                  1 microvo…     NA    NA    NA    NA    NA
#>  9 FC5      Ch9    NA                  1 microvo…     NA    NA    NA    NA    NA
#> 10 FC1      Ch10   NA                  1 microvo…     NA    NA    NA    NA    NA
#> # … with 24 more rows, and 1 more variable: .z <dbl>
…
With some ggplot skills, we can create customized plots. ggplot is overloaded to work on an eeg_lst by first downsampling the signal when necessary, and converting it to a long-format data frame that is feed into ggplot. This object can then be customized. (Notice that the channels, or component names are in a .key column and their amplitude in .value column, and instead of samples there are now .time in seconds).

## ggplot uses internally a table that looks like this:
faces_seg %>% eeg_filter(.id %in% 1:3) %>%
  as_tibble()
#> # A tibble: 31,416 × 8
#>      .time   .id .recording    segment description condition .key  .value
#>      <dbl> <int> <chr>           <int> <chr>       <chr>     <chr>  <dbl>
#>  1 -0.0996     1 s1_faces.vhdr       1 s71         non-faces Fp1   -1.39 
#>  2 -0.0977     1 s1_faces.vhdr       1 s71         non-faces Fp1   -1.13 
#>  3 -0.0957     1 s1_faces.vhdr       1 s71         non-faces Fp1   -0.534
#>  4 -0.0938     1 s1_faces.vhdr       1 s71         non-faces Fp1    0.286
#>  5 -0.0918     1 s1_faces.vhdr       1 s71         non-faces Fp1    1.23 
#>  6 -0.0898     1 s1_faces.vhdr       1 s71         non-faces Fp1    2.21 
#>  7 -0.0879     1 s1_faces.vhdr       1 s71         non-faces Fp1    3.15 
#>  8 -0.0859     1 s1_faces.vhdr       1 s71         non-faces Fp1    4.02 
#>  9 -0.0840     1 s1_faces.vhdr       1 s71         non-faces Fp1    4.80 
#> 10 -0.0820     1 s1_faces.vhdr       1 s71         non-faces Fp1    5.48 
#> # … with 31,406 more rows
…
df <- faces_seg %>%
  eeg_select(O1, O2, P7, P8) %>%
  as_tibble() %>%
  # We can use regular dplyr functions now
  group_by(.key, .time) %>%
  summarize(
    `t-value` = t.test(
      .value[condition == "faces"],
      .value[condition == "non-faces"]
    )$statistic
  )
#> `summarise()` has grouped output by '.key'. You can override using the `.groups` argument.

df
#> # A tibble: 1,232 × 3
#> # Groups:   .key [4]
#>    .key    .time `t-value`
#>    <chr>   <dbl>     <dbl>
#>  1 O1    -0.0996    0.231 
#>  2 O1    -0.0977    0.303 
#>  3 O1    -0.0957    0.352 
#>  4 O1    -0.0938    0.366 
#>  5 O1    -0.0918    0.334 
#>  6 O1    -0.0898    0.251 
#>  7 O1    -0.0879    0.111 
#>  8 O1    -0.0859   -0.0909
#>  9 O1    -0.0840   -0.354 
#> 10 O1    -0.0820   -0.664 
#> # … with 1,222 more rows
…
